<?xml version="1.0" encoding="UTF-8" standalone="no"?>
<!-- Generator: Adobe Illustrator 19.0.0, SVG Export Plug-In . SVG Version: 6.00 Build 0)  -->

<svg
   fill="#DDD"
   version="1.1"
   id="Layer_1"
   x="0px"
   y="0px"
   viewBox="0 0 451.29421 512.00383"
   xml:space="preserve"
   sodipodi:docname="hero.svg"
   width="451.29422"
   height="512.00385"
   inkscape:version="1.2.2 (b0a8486, 2022-12-01)"
   xmlns:inkscape="http://www.inkscape.org/namespaces/inkscape"
   xmlns:sodipodi="http://sodipodi.sourceforge.net/DTD/sodipodi-0.dtd"
   xmlns="http://www.w3.org/2000/svg"
   xmlns:svg="http://www.w3.org/2000/svg"><defs
   id="defs23" /><sodipodi:namedview
   id="namedview21"
   pagecolor="#ffffff"
   bordercolor="#666666"
   borderopacity="1.0"
   inkscape:showpageshadow="2"
   inkscape:pageopacity="0.0"
   inkscape:pagecheckerboard="0"
   inkscape:deskcolor="#d1d1d1"
   showgrid="false"
   inkscape:zoom="1.6542904"
   inkscape:cx="226.38106"
   inkscape:cy="231.82146"
   inkscape:window-width="1680"
   inkscape:window-height="997"
   inkscape:window-x="0"
   inkscape:window-y="25"
   inkscape:window-maximized="1"
   inkscape:current-layer="Layer_1" />
<g
   id="g6"
   transform="translate(-30.353883,-1.6956367e-4)">
	<g
   id="g4">
		<path
   d="m 368.51,235.569 h -6.354 c -1.481,0 -2.88,-0.072 -4.158,-0.215 -0.041,-0.004 -0.081,-0.008 -0.122,-0.013 -14.496,-1.449 -26.952,-10.027 -33.319,-22.94 -6.203,-12.601 -15.767,-23.253 -27.65,-30.797 -12.209,-7.771 -26.354,-11.878 -40.906,-11.878 -29.329,0 -55.603,16.35 -68.571,42.678 -6.919,14.071 -21.678,23.164 -37.597,23.164 h -6.34 c -5.833,0 -10.561,4.729 -10.561,10.561 0,5.832 4.728,10.561 10.561,10.561 h 12.47 c 21.761,0 43.178,9.826 58.75,26.948 1.806,1.99 4.188,5.39 6.711,8.989 2.303,3.285 4.913,7.011 7.68,10.509 6.348,8.025 15.142,17.236 26.897,17.236 15.118,0 25.874,-15.345 34.515,-27.674 2.541,-3.624 4.94,-7.048 6.768,-9.055 15.565,-17.129 36.981,-26.952 58.755,-26.952 h 0.757 c 0.528,0 1.043,-0.052 1.551,-0.127 1.241,0.076 2.506,0.127 3.807,0.127 h 6.354 c 5.833,0 10.561,-4.729 10.561,-10.561 0,-5.832 -4.726,-10.561 -10.559,-10.561 z m -86.85,33.86 c -2.728,2.995 -5.502,6.953 -8.44,11.145 -3.395,4.845 -7.245,10.336 -11.01,14.221 -4.268,4.405 -6.191,4.456 -6.21,4.456 -0.125,0 -3.122,-0.106 -10.332,-9.218 -2.387,-3.017 -4.707,-6.327 -6.949,-9.527 -2.915,-4.159 -5.668,-8.087 -8.375,-11.07 -11.272,-12.394 -25.048,-21.737 -39.992,-27.438 6.625,-5.501 12.141,-12.361 16.026,-20.264 9.384,-19.049 28.398,-30.884 49.62,-30.884 10.528,0 20.751,2.965 29.574,8.581 8.615,5.47 15.542,13.182 20.035,22.307 3.923,7.95 9.367,14.811 15.917,20.299 -14.901,5.705 -28.631,15.031 -39.864,27.392 z"
   id="path2" />
	</g>
</g>
<g
   id="g12"
   transform="translate(-30.353883,-1.6956367e-4)">
	<g
   id="g10">
		<path
   d="m 294.996,7.072 c -0.587,-0.1 -1.177,-0.199 -1.769,-0.295 -5.758,-0.934 -11.185,2.966 -12.124,8.722 -0.94,5.755 2.964,11.183 8.721,12.122 0.546,0.09 1.088,0.181 1.628,0.272 0.6,0.102 1.195,0.152 1.784,0.152 5.054,0 9.523,-3.64 10.399,-8.791 0.979,-5.749 -2.888,-11.203 -8.639,-12.182 z"
   id="path8" />
	</g>
</g>
<g
   id="g18"
   transform="translate(-30.353883,-1.6956367e-4)">
	<g
   id="g16">
		<path
   d="m 481.497,186.463 c -0.722,-4.227 -3.93,-7.598 -8.116,-8.53 l -58.706,-13.068 c 0.345,-6.129 1.127,-15.244 2.883,-25.916 h 34.382 c 5.833,0 10.561,-4.729 10.561,-10.561 0,-5.832 -4.728,-10.561 -10.561,-10.561 h -29.915 c 6.525,-24.95 19.005,-54.487 42.848,-73.812 3.675,-2.978 4.921,-8.038 3.049,-12.383 -1.872,-4.346 -6.414,-6.921 -11.095,-6.289 L 421.583,30.045 420.316,9.9 c -0.237,-3.763 -2.462,-7.114 -5.838,-8.793 -3.374,-1.679 -7.39,-1.43 -10.534,0.653 l -42.015,27.835 c -6.368,-3.449 -17.484,-8.871 -32.405,-13.858 -5.53,-1.85 -11.514,1.137 -13.363,6.668 -1.848,5.532 1.137,11.515 6.669,13.363 21.076,7.044 33.628,15.034 33.734,15.103 3.527,2.286 8.075,2.266 11.578,-0.058 l 32.241,-21.36 0.831,13.22 c 0.184,2.923 1.573,5.638 3.837,7.498 2.264,1.859 5.201,2.694 8.1,2.307 l 16.94,-2.26 c -15.878,21.425 -24.808,46.467 -29.831,67.608 h -84.883 c -5.833,0 -10.561,4.729 -10.561,10.561 0,5.832 4.728,10.561 10.561,10.561 h 18.896 v 11.882 c 0,5.832 4.728,10.561 10.561,10.561 5.833,0 10.561,-4.729 10.561,-10.561 v -11.882 h 40.778 c -2.999,19.758 -2.896,33.739 -2.888,34.438 0.053,4.905 3.477,9.129 8.266,10.193 l 42.033,9.356 -21.59,13.453 c -2.882,1.795 -4.725,4.867 -4.952,8.255 -0.227,3.388 1.188,6.679 3.804,8.844 l 19.16,15.857 -23.085,11.547 c -2.708,1.354 -4.704,3.806 -5.481,6.731 -0.778,2.926 -0.263,6.045 1.414,8.565 l 9.45,14.197 c -58.926,19.791 -98.995,63.007 -116.299,125.764 -9.747,35.353 -9.851,67.901 -8.971,84.731 h -82.06 c 0.303,-5.788 0.489,-13.436 0.207,-22.418 h 18.38 c 5.833,0 10.561,-4.729 10.561,-10.561 0,-5.832 -4.728,-10.561 -10.561,-10.561 h -19.835 c -0.781,-7.326 -1.909,-15.109 -3.492,-23.174 h 23.327 c 5.833,0 10.561,-4.729 10.561,-10.561 0,-5.832 -4.728,-10.561 -10.561,-10.561 H 205.1 C 187.339,341.972 147.646,299.844 89.7,280.383 l 9.45,-14.197 c 1.677,-2.521 2.192,-5.639 1.414,-8.565 -0.777,-2.926 -2.773,-5.378 -5.481,-6.731 l -23.085,-11.547 19.16,-15.857 c 2.616,-2.165 4.031,-5.456 3.804,-8.844 -0.227,-3.388 -2.07,-6.46 -4.952,-8.255 l -21.59,-13.453 42.033,-9.356 c 4.788,-1.066 8.212,-5.289 8.266,-10.193 0.007,-0.699 0.111,-14.682 -2.888,-34.438 h 40.778 v 11.882 c 0,5.832 4.728,10.561 10.561,10.561 5.833,0 10.561,-4.729 10.561,-10.561 v -11.882 h 18.896 c 5.833,0 10.561,-4.729 10.561,-10.561 0,-5.832 -4.728,-10.561 -10.561,-10.561 H 111.745 C 106.72,96.684 97.79,71.643 81.913,50.218 l 16.94,2.26 c 2.9,0.384 5.836,-0.449 8.1,-2.308 2.263,-1.86 3.652,-4.575 3.837,-7.498 l 0.831,-13.22 32.241,21.36 c 3.491,2.315 8.038,2.334 11.56,0.069 0.404,-0.26 41.17,-26.014 100.581,-26.014 5.833,0 10.561,-4.729 10.561,-10.561 0,-5.832 -4.728,-10.561 -10.561,-10.561 -52.662,0 -91.488,17.982 -105.939,25.839 L 108.061,1.758 c -3.144,-2.084 -7.159,-2.332 -10.534,-0.653 -3.376,1.679 -5.601,5.03 -5.838,8.793 L 90.422,30.044 55.177,25.342 c -4.69,-0.633 -9.223,1.944 -11.095,6.289 -1.872,4.345 -0.626,9.404 3.049,12.383 23.843,19.324 36.321,48.859 42.848,73.812 H 60.063 c -5.833,0 -10.561,4.729 -10.561,10.561 0,5.832 4.728,10.561 10.561,10.561 h 34.382 c 1.756,10.672 2.538,19.788 2.883,25.916 l -58.707,13.07 c -4.186,0.931 -7.394,4.302 -8.116,8.53 -0.722,4.228 1.185,8.472 4.825,10.741 l 31.069,19.36 -20.351,16.842 c -2.75,2.276 -4.165,5.787 -3.76,9.335 0.406,3.547 2.575,6.65 5.768,8.247 l 26.887,13.449 -10.742,16.139 c -1.891,2.842 -2.293,6.423 -1.077,9.613 1.216,3.19 3.898,5.595 7.201,6.457 59.536,15.537 98.273,54.058 115.137,114.491 12.888,46.188 7.631,88.518 7.578,88.93 -0.396,3.014 0.526,6.053 2.531,8.34 2.004,2.285 4.898,3.596 7.94,3.596 h 104.975 c 3.04,0 5.934,-1.311 7.94,-3.596 2.005,-2.286 2.927,-5.326 2.531,-8.34 -0.055,-0.417 -5.322,-42.152 7.404,-88.302 16.764,-60.795 55.56,-99.526 115.311,-115.12 3.303,-0.862 5.986,-3.267 7.201,-6.457 1.216,-3.19 0.814,-6.77 -1.077,-9.613 l -10.742,-16.139 26.887,-13.449 c 3.193,-1.597 5.363,-4.698 5.768,-8.247 0.406,-3.546 -1.01,-7.059 -3.76,-9.335 l -20.349,-16.842 31.07,-19.36 c 3.642,-2.27 5.549,-6.513 4.827,-10.741 z"
   id="path14" />
	</g>
</g>
</svg>
