[
  {
    "notes": "Blue keys if held send the Alt version of their keycode.\nThis is to help with i3 workspaces."
  },
  [
    {
      "y": 0.5,
      "x": 2,
      "c": "#3fbbeb",
      "a": 0
    },
    "E\n\n3\n#\nGui E",
    {
      "x": 6
    },
    "I\n\n8\n*\nGui I"
  ],
  [
    {
      "y": -0.87,
      "x": 1
    },
    "W\n\n2\n@\nGui W",
    {
      "x": 1
    },
    "R\n\n4\n$\nGui R",
    {
      "x": 4
    },
    "U\n\n7\n&\nGui U",
    {
      "x": 1
    },
    "O\n\n9\n(\nGui O"
  ],
  [
    {
      "y": -0.88,
      "x": 4
    },
    "T\n\n5\n%\nGui T",
    {
      "x": 2
    },
    "Y\n\n6\n^\nGui Y"
  ],
  [
    {
      "y": -0.75
    },
    "Q\n\n1\n!\nGui Q",
    {
      "x": 10
    },
    "P\n\n0\n)\nGui P"
  ],
  [
    {
      "y": -0.5,
      "x": 2,
      "c": "#ed8aea",
      "a": 4,
      "fa": [
        0,
        0,
        1
      ]
    },
    "D\n\nBottom",
    {
      "x": 6
    },
    "K\n\nUp"
  ],
  [
    {
      "y": -0.8700000000000001,
      "x": 1
    },
    "S\n\nHome",
    {
      "x": 1,
      "n": true
    },
    "F\n\nTop",
    {
      "x": 4,
      "n": true
    },
    "J\n\nDown",
    {
      "x": 1
    },
    "L\n\nRight"
  ],
  [
    {
      "y": -0.8799999999999999,
      "x": 4,
      "c": "#cccccc"
    },
    "G\n\nEnd",
    {
      "x": 2
    },
    "H\n\nLeft"
  ],
  [
    {
      "y": -0.75,
      "c": "#c98d38"
    },
    "A\nCtrl",
    {
      "x": 0.25,
      "c": "#ed8aea",
      "a": 7,
      "h": 0.5
    },
    "` ~",
    {
      "x": 0.5,
      "h": 0.5
    },
    "Esc",
    {
      "x": 4.5,
      "fa": [
        1
      ],
      "h": 0.5
    },
    "Backspace",
    {
      "x": 0.5,
      "f": 3,
      "h": 0.5
    },
    "' \"",
    {
      "x": 0.25,
      "c": "#c98d38",
      "a": 4,
      "f": 3
    },
    ";\nCtrl\n\n:"
  ],
  [
    {
      "y": -0.75,
      "x": 1.75,
      "c": "#ed8aea",
      "a": 7,
      "f": 3,
      "w": 1.75,
      "h": 0.5
    },
    "Tab",
    {
      "x": 5,
      "f": 3,
      "w": 1.75,
      "h": 0.5
    },
    "\\ |"
  ],
  [
    {
      "y": -0.75,
      "x": 2,
      "a": 4,
      "f": 3
    },
    "C",
    {
      "x": 6,
      "f": 3
    },
    ", <\n\n("
  ],
  [
    {
      "y": -0.8700000000000001,
      "x": 1,
      "c": "#cccccc",
      "f": 3
    },
    "X",
    {
      "x": 1,
      "c": "#ed8aea",
      "f": 3
    },
    "V",
    {
      "x": 4,
      "f": 3
    },
    "M\n\n]",
    {
      "x": 1,
      "c": "#cccccc",
      "f": 3
    },
    ". >\n\n)"
  ],
  [
    {
      "y": -0.8799999999999999,
      "x": 4,
      "f": 3
    },
    "B",
    {
      "x": 2,
      "f": 3
    },
    "N\n\n[\n{"
  ],
  [
    {
      "y": -0.75,
      "c": "#f7b45e",
      "f": 3
    },
    "Z\nShift",
    {
      "x": 1.5,
      "c": "#ed8aea",
      "a": 7,
      "f": 3,
      "h": 0.5
    },
    "- _",
    {
      "x": 5,
      "f": 3,
      "h": 0.5
    },
    "= +",
    {
      "x": 1.5,
      "c": "#f7b45e",
      "a": 4,
      "f": 3
    },
    "/\nShift\n\n?"
  ],
  [
    {
      "y": -0.33999999999999986,
      "x": 2.5,
      "c": "#cccccc",
      "a": 7,
      "f": 3
    },
    "GUI",
    {
      "x": 5,
      "c": "#92e0a3",
      "a": 4
    },
    "\n\nAlt\nAlt Gr"
  ],
  [
    {
      "r": 18,
      "rx": 3,
      "ry": 7.75,
      "y": -4.09,
      "x": -0.5,
      "c": "#f7b45e",
      "f": 3,
      "n": true
    },
    "Enter\nShift"
  ],
  [
    {
      "r": -18,
      "rx": 9,
      "y": -4.09,
      "x": -0.5,
      "f": 3,
      "n": true
    },
    "Space\nLayer1"
  ]
]